<?xml version="1.0" encoding="utf-8"?>
<!-- Generator: Adobe Illustrator 18.1.1, SVG Export Plug-In . SVG Version: 6.00 Build 0)  -->
<svg version="1.1" id="Grey_Outlines" xmlns="http://www.w3.org/2000/svg" xmlns:xlink="http://www.w3.org/1999/xlink" x="0px"
	 y="0px" viewBox="0 0 48 48" enable-background="new 0 0 48 48" xml:space="preserve">
<path fill="#828F9B" d="M11,1v10H1V1H11 M12,0H0v12h12V0L12,0z M29,1v10H19V1H29 M30,0H18v12h12V0L30,0z M47,1v10H37V1H47 M48,0H36
	v12h12V0L48,0z M11,37v10H1V37H11 M12,36H0v12h12V36L12,36z M29,37v10H19V37H29 M30,36H18v12h12V36L30,36z M47,37v10H37V37H47
	 M48,36H36v12h12V36L48,36z M11,19v10H1V19H11 M12,18H0v12h12V18L12,18z M29,19v10H19V19H29 M30,18H18v12h12V18L30,18z M47,19v10H37
	V19H47 M48,18H36v12h12V18L48,18z"/>
</svg>
